[
	{
		"success": true,
		"id": "a1a17000003NSJlAAO",
		"errors": []
	},
	{
		"success": true,
		"id": "a1a17000003NSJmAAO",
		"errors": []
	},
	{
		"success": true,
		"id": "a1a17000003NSJnAAO",
		"errors": []
	},
	{
		"success": true,
		"id": "a1a17000003NSJZAA4",
		"errors": []
	},
	{
		"success": true,
		"id": "a1a17000003NSJaAAO",
		"errors": []
	},
	{
		"success": true,
		"id": "a1a17000003NSJbAAO",
		"errors": []
	},
	{
		"success": true,
		"id": "a1a17000003NSJcAAO",
		"errors": []
	},
	{
		"success": true,
		"id": "a1a17000003NSJdAAO",
		"errors": []
	},
	{
		"success": true,
		"id": "a1a17000003NSJeAAO",
		"errors": []
	},
	{
		"success": true,
		"id": "a1a17000003NSJfAAO",
		"errors": []
	},
	{
		"success": true,
		"id": "a1a17000003NSJgAAO",
		"errors": []
	},
	{
		"success": true,
		"id": "a1a17000003NSJhAAO",
		"errors": []
	},
	{
		"success": true,
		"id": "a1a17000003NSJiAAO",
		"errors": []
	}
]